\select@language {english}
\contentsline {section}{\numberline {1}Introduction}{1}
\contentsline {section}{\numberline {2}Methods and Algorithms}{2}
\contentsline {subsection}{\numberline {2.1}Hough Transformation}{2}
\contentsline {subsection}{\numberline {2.2}Canny Edge Detection}{2}
\contentsline {section}{\numberline {3}Results}{2}
\contentsline {section}{\numberline {4}Conclusions}{3}
