\relax 
\providecommand{\transparent@use}[1]{}
\citation{CampEtAl:2010}
\citation{CampEtAl:2010}
\citation{CampEtAl:2010}
\citation{Isermann:2006}
\citation{CampEtAl:2010}
\citation{KaramanFrazz:2010}
\citation{Carvalho:2016}
\citation{Masci:2009}
\citation{Fitzgerald:2013}
\select@language{english}
\@writefile{toc}{\select@language{english}}
\@writefile{lof}{\select@language{english}}
\@writefile{lot}{\select@language{english}}
\@writefile{toc}{\contentsline {section}{\numberline {1}Introduction}{1}}
\newlabel{Sec:Introdution}{{1}{1}}
\@writefile{lof}{\contentsline {figure}{\numberline {1}{\ignorespaces Elementary vehicle architecture according to \cite  {CampEtAl:2010}. \relax }}{1}}
\providecommand*\caption@xref[2]{\@setref\relax\@undefined{#1}}
\newlabel{Fig:Architecture}{{1}{1}}
\citation{Masci:2009}
\citation{Masci:2009}
\@writefile{toc}{\contentsline {section}{\numberline {2}Methods and Algorithms}{2}}
\newlabel{Sec:Methods}{{2}{2}}
\@writefile{toc}{\contentsline {subsection}{\numberline {2.1}Hough Transformation}{2}}
\@writefile{lof}{\contentsline {figure}{\numberline {2}{\ignorespaces Illustration of Hough Transformation \cite  {Masci:2009}. \relax }}{2}}
\newlabel{Fig:Hough}{{2}{2}}
\@writefile{toc}{\contentsline {subsection}{\numberline {2.2}Canny Edge Detection}{2}}
\@writefile{toc}{\contentsline {section}{\numberline {3}Results}{2}}
\bibstyle{IEEEtran}
\bibdata{bibfile}
\bibcite{CampEtAl:2010}{1}
\bibcite{Isermann:2006}{2}
\bibcite{KaramanFrazz:2010}{3}
\bibcite{Carvalho:2016}{4}
\bibcite{Masci:2009}{5}
\bibcite{Fitzgerald:2013}{6}
\@writefile{lot}{\contentsline {table}{\numberline {1}{\ignorespaces Summary of experimental results.\relax }}{3}}
\newlabel{Tab:Results}{{1}{3}}
\newlabel{Equ:GleichungEinzeln}{{1}{3}}
\newlabel{Equ:Gleichung1}{{2a}{3}}
\newlabel{Equ:Gleichung2}{{2b}{3}}
\@writefile{toc}{\contentsline {section}{\numberline {4}Conclusions}{3}}
