\relax 
\providecommand{\transparent@use}[1]{}
\babel@aux{english}{}
\@writefile{toc}{\contentsline {section}{\numberline {1}Introduction}{1}}
\newlabel{Sec:Introdution}{{1}{1}}
\citation{intelFig}
\citation{intelFig}
\citation{Tomasi2015HistogramsOO}
\citation{dalal2005histograms}
\citation{Tomasi2015HistogramsOO}
\citation{dalal2005histograms}
\@writefile{toc}{\contentsline {section}{\numberline {2}Methods and Algorithms}{2}}
\newlabel{Sec:Methods}{{2}{2}}
\@writefile{toc}{\contentsline {subsection}{\numberline {2.1}Histograms of Oriented Gradients (HOG)}{2}}
\@writefile{lof}{\contentsline {figure}{\numberline {1}{\ignorespaces Principle of HOG features.\cite  {intelFig}\relax }}{2}}
\@writefile{toc}{\contentsline {subsubsection}{\numberline {2.1.1}Gradient Calculation}{2}}
\@writefile{toc}{\contentsline {subsubsection}{\numberline {2.1.2}Orientation Binning}{2}}
\citation{dalal2005histograms}
\citation{GTI2012}
\citation{GTI2012}
\citation{svmPseudo}
\citation{svmPseudo}
\@writefile{toc}{\contentsline {subsubsection}{\numberline {2.1.3}Block Normalization}{3}}
\@writefile{toc}{\contentsline {subsubsection}{\numberline {2.1.4}Feature Vector}{3}}
\@writefile{lof}{\contentsline {figure}{\numberline {2}{\ignorespaces Visualization of the hog feature vector of a vehicle and non-vehicle image\cite  {GTI2012}\relax }}{3}}
\@writefile{toc}{\contentsline {subsection}{\numberline {2.2}Support Vector Machine (SVM)}{3}}
\@writefile{lof}{\contentsline {figure}{\numberline {3}{\ignorespaces SVM-Pseudocode\cite  {svmPseudo}\relax }}{3}}
\citation{svmHyper}
\citation{svmHyper}
\citation{minsky69perceptrons}
\citation{boser1992}
\citation{Burges98atutorial}
\citation{svmKernel}
\citation{svmKernel}
\@writefile{toc}{\contentsline {subsubsection}{\numberline {2.2.1}Linear Perceptrons}{4}}
\@writefile{lof}{\contentsline {figure}{\numberline {4}{\ignorespaces Hyperplane\cite  {svmHyper}\relax }}{4}}
\@writefile{toc}{\contentsline {subsubsection}{\numberline {2.2.2}Nonlinear classification}{4}}
\citation{GTI2012}
\citation{Geiger2012CVPR}
\@writefile{lof}{\contentsline {figure}{\numberline {5}{\ignorespaces "kernel-trick" \cite  {svmKernel}\relax }}{5}}
\@writefile{toc}{\contentsline {section}{\numberline {3}Implementation}{5}}
\@writefile{toc}{\contentsline {subsection}{\numberline {3.1}HOG-Parameter}{5}}
\@writefile{toc}{\contentsline {subsection}{\numberline {3.2}SVM-Training}{5}}
\citation{haarman2015feature}
\citation{DBLP:journals/corr/LinCWSC15}
\@writefile{toc}{\contentsline {subsection}{\numberline {3.3}Sliding Window}{6}}
\@writefile{lof}{\contentsline {figure}{\numberline {6}{\ignorespaces Example of Sliding Windows\relax }}{6}}
\@writefile{toc}{\contentsline {subsection}{\numberline {3.4}Heat Map}{6}}
\@writefile{lof}{\contentsline {figure}{\numberline {7}{\ignorespaces Heatmap of a vehicle detection with (intentionally) many false positives\relax }}{7}}
\@writefile{toc}{\contentsline {section}{\numberline {4}Results}{7}}
\bibstyle{IEEEtran}
\bibdata{bibfile}
\bibcite{intelFig}{1}
\bibcite{Tomasi2015HistogramsOO}{2}
\bibcite{dalal2005histograms}{3}
\bibcite{GTI2012}{4}
\bibcite{svmPseudo}{5}
\bibcite{svmHyper}{6}
\bibcite{minsky69perceptrons}{7}
\@writefile{toc}{\contentsline {section}{\numberline {5}Conclusion}{8}}
\bibcite{boser1992}{8}
\bibcite{Burges98atutorial}{9}
\bibcite{svmKernel}{10}
\bibcite{Geiger2012CVPR}{11}
\bibcite{haarman2015feature}{12}
\bibcite{DBLP:journals/corr/LinCWSC15}{13}
